<svg xmlns="http://www.w3.org/2000/svg" viewBox="0 0 16 16">
 <g transform="translate(0,-1036.3622)">
  <path d="m 2 1038.86 0 6.5 8 0 0 -3.5 -0.5 -2.5 -2.5 0 -0.5 -1 -4 0 c -0.25 0 -0.5 0.25 -0.5 0.5 z" style="fill:#cc3a48;fill-opacity:1;stroke:none"/>
  <rect y="1039.36" x="3" height="2" width="5" style="fill:#fffdf0;fill-opacity:1;stroke:none"/>
  <path d="m 10 1039.86 0 6.5 -8 0 0 -6 3.5 0 0.5 -1 3.5 0 c 0.25 0 0.5 0.25 0.5 0.5 z" style="fill:#bf616a;fill-opacity:1;stroke:none"/>
  <path d="m 6 1042.86 0 6.5 8 0 0 -3.5 -0.5 -2.5 -2.5 0 -0.5 -1 -4 0 c -0.25 0 -0.5 0.25 -0.5 0.5 z" style="fill:#cc3a48;fill-opacity:1;stroke:none"/>
  <rect width="5" height="2" x="7" y="1043.36" style="fill:#fffdf0;fill-opacity:1;stroke:none"/>
  <path d="m 14 1043.86 0 6.5 -8 0 0 -6 3.5 0 0.5 -1 3.5 0 c 0.25 0 0.5 0.25 0.5 0.5 z" style="fill:#bf616a;fill-opacity:1;stroke:none"/>
 </g>
</svg>
