<svg viewBox="0 0 16 16" xmlns="http://www.w3.org/2000/svg">
 <path style="fill:#cc3a48;fill-opacity:1;stroke:none" d="m 2 2.498 0 6.5 8 0 0 -3.5 -0.5 -2.5 -2.5 0 -0.5 -1 -4 0 c -0.25 0 -0.5 0.25 -0.5 0.5 z"/>
 <rect y="2.998" x="3" style="fill:#fffdf0;fill-opacity:1;stroke:none" width="5" height="2"/>
 <path style="fill:#bf616a;fill-opacity:1;stroke:none" d="m 10 3.498 0 6.5 -8 0 0 -6 3.5 0 0.5 -1 3.5 0 c 0.25 0 0.5 0.25 0.5 0.5 z"/>
 <path style="fill:#fff;opacity:0.5;fill-opacity:1;stroke:none" d="m 2.5 1.998 c -0.25 0 -0.5 0.25 -0.5 0.5 l 0 1.5 l 0 5 l 0 1 l 8 0 l 0 -1 l 0 -3.5 l 0 -2 c 0 -0.25 -0.25 -0.5 -0.5 -0.5 l -1.5 0 l -1 0 l -0.5 -1 l -4 0 z"/>
 <path style="fill:#cc3a48;fill-opacity:1;stroke:none" d="m 6 6.498 0 6.5 8 0 0 -3.5 -0.5 -2.5 -2.5 0 -0.5 -1 -4 0 c -0.25 0 -0.5 0.25 -0.5 0.5 z"/>
 <rect y="6.998" x="7" style="fill:#fffdf0;fill-opacity:1;stroke:none" width="5" height="2"/>
 <path style="fill:#bf616a;fill-opacity:1;stroke:none" d="m 14 7.498 0 6.5 -8 0 0 -6 3.5 0 0.5 -1 3.5 0 c 0.25 0 0.5 0.25 0.5 0.5 z"/>
</svg>
