<svg xmlns="http://www.w3.org/2000/svg" viewBox="0 0 64 64">
 <defs>
  <radialGradient id="radialGradient3964" cx="32.5" cy="56.5" r="33.5" gradientTransform="matrix(1,0,0,0.10447761,0,50.597015)" gradientUnits="userSpaceOnUse">
   <stop style="stop-color:#000;stop-opacity:1"/>
   <stop offset="1" style="stop-color:#000;stop-opacity:0"/>
  </radialGradient>
 </defs>
 <g transform="translate(0,-988.3622)">
  <path d="m 66 56.5 a 33.5 3.5 0 1 1 -67 0 33.5 3.5 0 1 1 67 0 z" transform="matrix(1.1343284,0,0,1.1428571,-4.8656716,979.79077)" style="fill:url(#radialGradient3964);opacity:0.6;fill-opacity:1;stroke:none"/>
  <path d="m 0 997.42 0 42.823 64 0 0 -21.412 -3.048 -18.353 l -23.952 -0.118 l -3 -6 -30.952 0 c -1.524 0 -3.048 1.529 -3.048 3.059 z" style="fill:#cc3a48;fill-opacity:1;stroke:none"/>
  <rect width="31.571" height="11.882" x="5" y="1002.36" style="fill:#fffdf0;fill-opacity:1;stroke:none"/>
  <path d="M 3.0625,6 C 1.538691,6 0,7.53308 0,9.0625 l 0,2 C 0,9.53308 1.538691,8 3.0625,8 L 33,8 36,14 60.9375,14.125 64,32.46875 l 0,-2 L 60.9375,12.125 37,12 34,6 z" transform="translate(0,988.3622)" style="fill:#000;opacity:0.03;fill-opacity:1;stroke:none"/>
  <path d="m 64 1003.54 0 42.824 -64 0 0 -40 30 0 3 -6 27.952 0.118 c 1.524 0 3.048 1.529 3.048 3.059 z" style="fill:#bf616a;fill-opacity:1;stroke:none"/>
  <path d="m 0 1044.36 0 2 64 0 0 -2 z" style="fill:#000;opacity:0.15;fill-opacity:1;stroke:none"/>
  <path d="m 33 12 -3 6 -30 0 0 2 31 0 3 -6 26.938 0.125 c 1.524 0 3.063 1.533 3.063 3.063 l 0 -2 c 0 -1.529 -1.539 -3.063 -3.063 -3.063 z" transform="translate(0,988.3622)" style="fill:#000;opacity:0.03;fill-opacity:1;stroke:none"/>
  <g style="opacity:1">
   <rect ry="1.905" rx="2" y="1035.36" x="18" height="4" width="28" style="fill:#8a343c;opacity:1;fill-opacity:1;stroke:none"/>
   <rect transform="matrix(0,1,-1,0,0,0)" width="12" height="4" x="1027.36" y="-22" rx="2" ry="1.929" style="fill:#8a343c;opacity:1;fill-opacity:1;stroke:none"/>
   <rect ry="1.929" rx="2" y="-46" x="1027.36" height="4" width="12" transform="matrix(0,1,-1,0,0,0)" style="fill:#8a343c;opacity:1;fill-opacity:1;stroke:none"/>
   <path d="m 34 1031.36 c -2 2 -2 2 -4 0 l -4 -4 c -2 -2 -2 -2 0 -2 l 12 0 c 2 0 2 0 0 2 z" style="fill:#8a343c;opacity:1;fill-opacity:1;stroke:none"/>
   <rect rx="2" y="1013.36" x="30" height="16" width="4" style="fill:#8a343c;opacity:1;fill-opacity:1;stroke:none"/>
  </g>
 </g>
</svg>
