<svg xmlns="http://www.w3.org/2000/svg" viewBox="0 0 32 32">
 <defs>
  <radialGradient id="radialGradient3031" gradientUnits="userSpaceOnUse" gradientTransform="matrix(1,0,0,0.10447761,0,50.597015)" cx="32.5" cy="56.5" r="33.5">
   <stop style="stop-color:#000;stop-opacity:1"/>
   <stop offset="1" style="stop-color:#000;stop-opacity:0"/>
  </radialGradient>
 </defs>
 <g transform="translate(0,-1020.3622)">
  <path d="m 66 56.5 a 33.5 3.5 0 1 1 -67 0 33.5 3.5 0 1 1 67 0 z" transform="matrix(0.71641791,0,0,0.85714286,-7.2835821,999.9336)" style="fill:url(#radialGradient3031);opacity:0.3;fill-opacity:1;stroke:none"/>
  <g transform="matrix(0.5,0,0,0.5,44.069423,524.09775)">
   <path d="m -88.14 1001.59 0 42.823 64 0 0 -21.412 -3.048 -18.353 -23.952 -0.118 -3 -6 -30.952 0 c -1.524 0 -3.048 1.529 -3.048 3.059 z" style="fill:#cc3a48;fill-opacity:1;stroke:none"/>
   <rect y="1006.53" x="-83.14" height="11.882" width="31.571" style="fill:#fffdf0;fill-opacity:1;stroke:none"/>
   <path d="m -85.08 998.53 c -1.524 0 -3.063 1.533 -3.063 3.063 l 0 2 c 0 -1.529 1.539 -3.063 3.063 -3.063 l 29.938 0 3 6 24.938 0.125 3.063 18.344 0 -2 -3.063 -18.344 -23.938 -0.125 -3 -6 z" style="fill:#000;opacity:0.03;fill-opacity:1;stroke:none"/>
   <path d="m -24.14 1007.71 0 42.823 -64 0 0 -40 30 0 3 -6 27.952 0.118 c 1.524 0 3.048 1.529 3.048 3.059 z" style="fill:#bf616a;fill-opacity:1;stroke:none"/>
   <path d="m -88.14 1048.53 0 2 64 0 0 -2 z" style="fill:#000;opacity:0.15;fill-opacity:1;stroke:none"/>
   <path d="m -55.14 1004.53 -3 6 -30 0 0 2 31 0 3 -6 26.938 0.125 c 1.524 0 3.063 1.533 3.063 3.063 l 0 -2 c 0 -1.529 -1.539 -3.063 -3.063 -3.063 z" style="fill:#000;opacity:0.03;fill-opacity:1;stroke:none"/>
   <path d="m -58.03 1018.53 c -0.666 0 -1.222 0.529 -1.222 1.195 l 0 1.556 c -0.421 0.143 -0.829 0.305 -1.222 0.5 l -1.083 -1.083 c -0.471 -0.471 -1.224 -0.471 -1.694 0 l -2.722 2.694 c -0.471 0.471 -0.471 1.224 0 1.694 l 1.083 1.083 c -0.199 0.4 -0.356 0.821 -0.5 1.25 l -1.528 0 c -0.666 0 -1.222 0.529 -1.222 1.195 l 0 3.833 c 0 0.666 0.557 1.195 1.222 1.195 l 1.528 0 c 0.144 0.429 0.301 0.85 0.5 1.25 l -1.083 1.083 c -0.471 0.471 -0.471 1.224 0 1.694 l 2.722 2.694 c 0.471 0.47 1.224 0.47 1.694 0 l 1.083 -1.083 c 0.393 0.195 0.801 0.358 1.222 0.5 l 0 1.555 c 0 0.666 0.557 1.195 1.222 1.195 l 3.806 0 c 0.666 0 1.194 -0.529 1.194 -1.195 l 0 -1.555 c 0.429 -0.144 0.85 -0.301 1.25 -0.5 l 1.083 1.083 c 0.471 0.47 1.224 0.47 1.694 0 l 2.722 -2.694 c 0.471 -0.471 0.471 -1.224 0 -1.694 l -1.111 -1.111 c 0.195 -0.393 0.359 -0.801 0.5 -1.222 l 1.556 0 c 0.666 0 1.194 -0.529 1.194 -1.195 l 0 -3.833 c 0 -0.666 -0.529 -1.195 -1.194 -1.195 l -1.556 0 c -0.141 -0.421 -0.305 -0.829 -0.5 -1.222 l 1.111 -1.111 c 0.471 -0.471 0.471 -1.224 0 -1.694 l -2.722 -2.694 c -0.471 -0.471 -1.224 -0.471 -1.694 0 l -1.083 1.083 c -0.4 -0.2 -0.821 -0.356 -1.25 -0.5 l 0 -1.556 c 0 -0.666 -0.529 -1.195 -1.194 -1.195 l -3.806 0 z m 1.889 8.889 c 1.717 0 3.111 1.394 3.111 3.111 0 1.717 -1.394 3.111 -3.111 3.111 -1.717 0 -3.111 -1.394 -3.111 -3.111 0 -1.717 1.394 -3.111 3.111 -3.111 z" style="fill:#8a343c;opacity:1;fill-opacity:1;display:block;color:#000"/>
  </g>
 </g>
</svg>
