<svg xmlns="http://www.w3.org/2000/svg" viewBox="0 0 48 48">
 <defs>
  <radialGradient id="radialGradient3850" cx="24.08" cy="41.38" r="21.08" gradientTransform="matrix(1,0,0,0.11307633,0,36.703704)" gradientUnits="userSpaceOnUse">
   <stop style="stop-color:#000;stop-opacity:0.392"/>
   <stop offset="1" style="stop-color:#000;stop-opacity:0"/>
  </radialGradient>
 </defs>
 <g>
  <path d="m 45.15 41.38 a 21.08 2.383 0 1 1 -42.15 0 21.08 2.383 0 1 1 42.15 0 z" transform="matrix(1.1387537,0,0,1.0490275,-3.4162611,-1.9120725)" style="fill:url(#radialGradient3850);opacity:0.65;fill-opacity:1;stroke:none"/>
 </g>
 <g transform="translate(0,-1004.3622)">
  <path d="m 3 1014.36 0 28 42 0 0 -14 -2 -12 -16 0 -2 -4 -20 0 c -1 0 -2 1 -2 2 z" style="fill:#cc3a48;fill-opacity:1;stroke:none"/>
  <rect width="21" height="8" x="6" y="1017.36" style="fill:#fffdf0;fill-opacity:1;stroke:none"/>
  <path d="m 5 1012.36 c -1 0 -2 1 -2 2 l 0 1 c 0 -1 1 -2 2 -2 l 19 0 2 4 17 0 2 12 0 -1 -2 -12 -16 0 -2 -4 z" style="fill:#000;opacity:0.03;fill-opacity:1;stroke:none"/>
  <path d="m 45 1018.36 0 28 -42 0 0 -26 20 0 2 -4 18 0 c 1 0 2 1 2 2 z" style="fill:#bf616a;fill-opacity:1;stroke:none"/>
  <path d="m 3 1045.36 0 1 42 0 0 -1 z" style="fill:#000;opacity:0.15;fill-opacity:1;stroke:none"/>
  <path d="m 25 1016.36 -2 4 -20 0 0 1 21 0 2 -4 17 0 c 1 0 2 1 2 2 l 0 -1 c 0 -1 -1 -2 -2 -2 z" style="fill:#000;opacity:0.03;fill-opacity:1;stroke:none"/>
  <path d="m 21.06 1038.96 c -0.039 1.396 -1.204 2.496 -2.601 2.456 -1.397 -0.042 -2.497 -1.205 -2.455 -2.601 0.039 -1.396 1.204 -2.496 2.601 -2.456 1.397 0.042 2.497 1.205 2.455 2.6 m 0 0" style="fill:#8a343c;opacity:1;fill-opacity:1;stroke:none;fill-rule:nonzero"/>
  <path d="m 27 1041.36 c -0.159 -6.522 -6.447 -10.533 -11 -10.996 l 0 3 c 3.666 0.301 7.959 3.719 8 7.996" style="fill:#8a343c;opacity:1;fill-opacity:1;stroke:none;fill-rule:nonzero"/>
  <path d="m 32 1041.36 c 0 -9.604 -8.625 -15.696 -16 -16 l 0 3 c 6.764 0.747 13.03 6.277 13 13" style="fill:#8a343c;opacity:1;fill-opacity:1;stroke:none;fill-rule:nonzero"/>
 </g>
</svg>
