<svg xmlns="http://www.w3.org/2000/svg" viewBox="0 0 32 32">
 <defs>
  <radialGradient id="radialGradient3031" gradientUnits="userSpaceOnUse" gradientTransform="matrix(1,0,0,0.10447761,0,50.597015)" cx="32.5" cy="56.5" r="33.5">
   <stop style="stop-color:#000;stop-opacity:1"/>
   <stop offset="1" style="stop-color:#000;stop-opacity:0"/>
  </radialGradient>
 </defs>
 <g transform="translate(0,-1020.3622)">
  <path d="m 66 56.5 a 33.5 3.5 0 1 1 -67 0 33.5 3.5 0 1 1 67 0 z" transform="matrix(0.71641791,0,0,0.85714286,-7.2835821,1002.9336)" style="fill:url(#radialGradient3031);opacity:0.3;fill-opacity:1;stroke:none"/>
  <rect width="26" height="19" x="3" y="1020.36" style="fill:#eae7d1;fill-opacity:1;stroke:none"/>
  <rect width="20" height="2" x="6" y="1022.36" style="fill:#7a7a68;fill-opacity:1;stroke:none"/>
  <rect y="1026.36" x="6" height="2" width="20" style="fill:#7a7a68;fill-opacity:1;stroke:none"/>
  <rect width="20" height="2" x="6" y="1030.36" style="fill:#7a7a68;fill-opacity:1;stroke:none"/>
  <path d="m 32 1033.03 0 18.328 -32 0 0 -17 15 0 1.5 -3 13.976 0.062 c 0.762 0 1.524 0.805 1.524 1.61 z" style="fill:#bf616a;fill-opacity:1;stroke:none"/>
  <path d="m 0 1050.36 0 1 32 0 0 -1 z" style="fill:#000;opacity:0.15;fill-opacity:1;stroke:none"/>
  <path d="m 16.5 1031.36 -1.5 3 -15 0 0 1 15.5 0 1.5 -3 13.469 0.062 c 0.762 0 1.531 0.767 1.531 1.531 l 0 -1 c 0 0 -0.769 -1.531 -1.531 -1.531 z" style="fill:#000;opacity:0.03;fill-opacity:1;stroke:none"/>
 </g>
</svg>
